{
    "name": "Web",
    "dockerComposeFile": "../docker-compose.yml",
    "service": "web",
    "settings": {
    },
    "extensions": [
		"bmewburn.vscode-intelephense-client",
		"marcostazi.VS-code-drupal",
		"ms-azuretools.vscode-docker",
		"xdebug.php-debug",
		"whatwedo.twig",
		"tsega.drupal-8-twig-snippets"
	],
    "workspaceFolder": "/var/www/html",
    "remoteUser": "docker",
    "shutdownAction": "stopCompose",
    "postStartCommand": "composer install --prefer-install=auto"
}